{
    "KPlugin": {
        "Authors": [
            {
                "Email": "devin@kde.org",
                "Name": "Devin Lin",
                "Name[az]": "Devin Lin",
                "Name[ca@valencia]": "Devin Lin",
                "Name[ca]": "Devin Lin",
                "Name[de]": "Devin Lin",
                "Name[en_GB]": "Devin Lin",
                "Name[es]": "Devin Lin",
                "Name[eu]": "Devin Lin",
                "Name[fr]": "Devin Lin",
                "Name[it]": "Devin Lin",
                "Name[nl]": "Devin Lin",
                "Name[pl]": "Devin Lin",
                "Name[pt]": "Devin Lin",
                "Name[sl]": "Devin Lin",
                "Name[sv]": "Devin Lin",
                "Name[tr]": "Devin Lin",
                "Name[uk]": "Devin Lin",
                "Name[x-test]": "xxDevin Linxx",
                "Name[zh_CN]": "Devin Lin"
            }
        ],
        "Icon": "input-keyboard-virtual",
        "Id": "org.kde.plasma.quicksetting.keyboardtoggle",
        "License": "GPL",
        "Name": "Virtual Keyboard Toggle",
        "Name[az]": "Virtual klaviatura keçidi",
        "Name[ca@valencia]": "Commutació del teclat virtual",
        "Name[ca]": "Commutació del teclat virtual",
        "Name[cs]": "Přepínání virtuální klávesnice",
        "Name[en_GB]": "Virtual Keyboard Toggle",
        "Name[es]": "Conmutación del teclado virtual",
        "Name[eu]": "Alegiazko teklatua txandakatzea",
        "Name[fi]": "Näytä tai piilota näyttönäppäimistö",
        "Name[fr]": "Basculement vers /hors clavier virtuel",
        "Name[hu]": "Virtuális billentyűzet kapcsoló",
        "Name[ia]": "Commuta Claviero Virtual",
        "Name[it]": "Attiva/disattiva la tastiera virtuale",
        "Name[ka]": "ვირტუალური კლავიატურის გადართვა",
        "Name[ko]": "가상 키보드 전환",
        "Name[nl]": "Omschakeling van virtueel toetsenbord",
        "Name[pa]": "ਫ਼ਰਜ਼ੀ ਕੀਬੋਰਡ ਬਦਲੋ",
        "Name[pl]": "Przełącznik klawiatury ekranowej",
        "Name[pt]": "Comutar o Teclado Virtual",
        "Name[pt_BR]": "Alternar teclado virtual",
        "Name[sl]": "Preklop navidezne tipkovnice",
        "Name[sv]": "Visa eller dölj virtuellt tangentbord",
        "Name[tr]": "Sanal Klavye Geçişi",
        "Name[uk]": "Перемикання віртуальної клавіатури",
        "Name[x-test]": "xxVirtual Keyboard Togglexx",
        "Name[zh_CN]": "虚拟键盘开关",
        "ServiceTypes": [
            "KPackage/GenericQML"
        ],
        "Version": "0.1",
        "Website": "https://kde.org"
    }
}
